\BOOKMARK [1][-]{section.1}{INTRODUCCI\323N}{}% 1
\BOOKMARK [1][-]{section.2}{TECNOLOG\315A ESPEC\315FICA / INTENSIFICACI\323N / ITINERARIO CURSADO POR EL ALUMNO}{}% 2
\BOOKMARK [1][-]{section.3}{OBJETIVOS}{}% 3
\BOOKMARK [1][-]{section.4}{M\311TODO Y FASES DE TRABAJO}{}% 4
\BOOKMARK [1][-]{section.5}{MEDIOS QUE SE PRETENDEN UTILIZAR}{}% 5
\BOOKMARK [2][-]{subsection.5.1}{Medios Hardware}{section.5}% 6
\BOOKMARK [2][-]{subsection.5.2}{Medios Software}{section.5}% 7
\BOOKMARK [1][-]{section.6}{REFERENCIAS}{}% 8
