\relax 
\providecommand\hyper@newdestlabel[2]{}
\catcode `"\active 
\catcode `<\active 
\catcode `>\active 
\@nameuse{es@quoting}
\providecommand\HyperFirstAtBeginDocument{\AtBeginDocument}
\HyperFirstAtBeginDocument{\ifx\hyper@anchor\@undefined
\global\let\oldcontentsline\contentsline
\gdef\contentsline#1#2#3#4{\oldcontentsline{#1}{#2}{#3}}
\global\let\oldnewlabel\newlabel
\gdef\newlabel#1#2{\newlabelxx{#1}#2}
\gdef\newlabelxx#1#2#3#4#5#6{\oldnewlabel{#1}{{#2}{#3}}}
\AtEndDocument{\ifx\hyper@anchor\@undefined
\let\contentsline\oldcontentsline
\let\newlabel\oldnewlabel
\fi}
\fi}
\global\let\hyper@last\relax 
\gdef\HyperFirstAtBeginDocument#1{#1}
\providecommand\HyField@AuxAddToFields[1]{}
\providecommand\HyField@AuxAddToCoFields[2]{}
\select@language{spanish}
\@writefile{toc}{\select@language{spanish}}
\@writefile{lof}{\select@language{spanish}}
\@writefile{lot}{\select@language{spanish}}
\citation{endesa}
\citation{objetivos}
\citation{opencv}
\citation{blender}
\citation{citisim}
\@writefile{toc}{\contentsline {section}{\numberline {1}INTRODUCCI\IeC {\'O}N}{2}{section.1}}
\@writefile{lof}{\contentsline {figure}{\numberline {1}{\ignorespaces Puerto real de Valencia y su correspondencia virtual\relax }}{3}{figure.caption.1}}
\@writefile{lof}{\contentsline {figure}{\numberline {2}{\ignorespaces Esquema del sistema a desarrollar\relax }}{3}{figure.caption.2}}
\@writefile{toc}{\contentsline {section}{\numberline {2}TECNOLOG\IeC {\'I}A ESPEC\IeC {\'I}FICA / INTENSIFICACI\IeC {\'O}N / ITINERARIO CURSADO POR EL ALUMNO}{4}{section.2}}
\@writefile{lot}{\contentsline {table}{\numberline {1}{\ignorespaces Tecnolog\IeC {\'\i }a Espec\IeC {\'\i }fica cursada por el alumno\relax }}{4}{table.caption.3}}
\providecommand*\caption@xref[2]{\@setref\relax\@undefined{#1}}
\newlabel{tab:tec-especifica}{{1}{4}{Tecnología Específica cursada por el alumno\relax }{table.caption.3}{}}
\@writefile{lot}{\contentsline {table}{\numberline {2}{\ignorespaces Justificaci\IeC {\'o}n de las competencias espec\IeC {\'\i }ficas abordadas en el TFG\relax }}{4}{table.caption.4}}
\newlabel{tab:competencias}{{2}{4}{Justificación de las competencias específicas abordadas en el TFG\relax }{table.caption.4}{}}
\@writefile{toc}{\contentsline {section}{\numberline {3}OBJETIVOS}{5}{section.3}}
\@writefile{toc}{\contentsline {section}{\numberline {4}M\IeC {\'E}TODO Y FASES DE TRABAJO}{5}{section.4}}
\citation{opencv}
\@writefile{toc}{\contentsline {section}{\numberline {5}MEDIOS QUE SE PRETENDEN UTILIZAR}{6}{section.5}}
\@writefile{toc}{\contentsline {subsection}{\numberline {5.1}Medios Hardware}{6}{subsection.5.1}}
\@writefile{lot}{\contentsline {table}{\numberline {3}{\ignorespaces Equipo elegido para el desarrollo del proyecto.\relax }}{6}{table.caption.5}}
\newlabel{tab:medios-hardware}{{3}{6}{Equipo elegido para el desarrollo del proyecto.\relax }{table.caption.5}{}}
\citation{blender}
\citation{python}
\citation{latex}
\citation{bitbucket}
\@writefile{toc}{\contentsline {subsection}{\numberline {5.2}Medios Software}{7}{subsection.5.2}}
\bibstyle{plain}
\bibcite{endesa}{1}
\bibcite{objetivos}{2}
\bibcite{citisim}{3}
\bibcite{opencv}{4}
\bibcite{python}{5}
\bibcite{blender}{6}
\bibcite{bitbucket}{7}
\bibcite{latex}{8}
\@writefile{toc}{\contentsline {section}{\numberline {6}REFERENCIAS}{8}{section.6}}
