<way id="42053984" version="3" timestamp="2014-07-14T21:25:25Z" changeset="24149660" uid="3584" user="gpesquero">
    <nd ref="522198143"/>
    <nd ref="522198141"/>
    <nd ref="522198145"/>
    <tag k="highway" v="residential"/>
    <tag k="name" v="Paseo del Prado"/>
    <tag k="oneway" v="yes"/>
</way>
